{
  "properties": [
    {
      "name": "config.resource-file-extension",
      "type": "java.lang.String",
      "description": "Extension for file with schedule plan."
    },
    {
      "name": "config.group-event-path",
      "type": "java.lang.String",
      "description": "Link with resource of select event."
    },
    {
      "name": "config.group-list-path",
      "type": "java.lang.String",
      "description": "Link with resources to read groups list."
    },
    {
      "name": "config.scheme",
      "type": "java.lang.String",
      "description": "Value of scheme. Default value is 'http'."
    },
    {
      "name": "config.host",
      "type": "java.lang.String",
      "description": "Location of host."
    },
    {
      "name": "config.cache-ttl",
      "type": "java.lang.Integer",
      "description": "Time to live of cache."
    },
    {
      "name": "secure.permit-api-keys",
      "type": "java.lang.String",
      "description": "List of permitted key to make request."
    }
  ]
}